model,recall_5,recall_10,map_10,miuf_10,serendipity_10,share_top_item_3,recall_no_pop_10,n_folds,mlflow_run_id,experiment_id
bm25_50_0.1_0.7_limit_30,0.07857,0.12841,0.05046,6.54962,0.00019,0.02829,0.09263,3,e805e344cf934bde80c575f3feb39741,15
bm25_50_0.1_0.7_limit_20,0.08191,0.13338,0.05236,6.54028,0.0002,0.03323,0.09333,3,488fd1b93f30463ea61fac25057fefc4,15
bm25_50_0.1_0.7_limit_50,0.07609,0.12465,0.04908,6.56211,0.00019,0.02617,0.09206,3,43d212c1228c41e191313321fc6daae9,15
bm25_50_0.1_0.7_limit_20_days_170,0.08191,0.13338,0.05236,6.54028,0.0002,0.03323,0.09333,3,fa4d1a3c7ce549f5b75e502a14f61130,15
bm25_50_0.1_0.7_limit_20_days_120,0.08068,0.13182,0.05164,6.57254,0.0002,0.03071,0.094,3,90751eff19db44cba6222d824dd0252b,15
bm25_50_0.1_0.7_limit_20_days_90,0.07751,0.12634,0.05019,6.62595,0.0002,0.01319,0.09654,3,65ef2dc0c282421c96fc3179033e724c,15
bm25_50_0.1_0.7_limit_20_days_60,0.0752,0.12191,0.04939,6.72523,0.00021,0.00706,0.09931,3,3101705da7a64ffa8c1b20e221cd1c72,15
bm25_50_0.1_0.7_limit_20_days_30,0.07291,0.12097,0.04806,7.02224,0.00025,0.00603,0.0989,3,1d83073b0f6e4963887c114f14e7f223,15
bm25_30_0.1_0.7_limit_20_days_60,0.07459,0.12021,0.04878,6.77978,0.00022,0.00726,0.09778,3,18410f2591684006b83b47d25f27c89f,15
bm25_20_0.1_0.7_limit_20_days_60,0.07353,0.11916,0.04841,6.86569,0.00023,0.00795,0.09778,3,51bc2e82218e437fac316ad922b75f24,15
bm25_100_0.1_0.6_limit_20_days_60,0.07938,0.12959,0.05211,6.52372,0.00019,0.00712,0.10021,3,212844ff55f0453084516b051e7504db,15
bm25_100_0.1_0.8_limit_20_days_60,0.07237,0.11767,0.04776,6.86366,0.00022,0.00247,0.10026,3,6e00ba886723483c8b3ef8f0fdef0de5,15
bm25_100_0.1_0.9_limit_20_days_60,0.06944,0.1131,0.04598,7.00532,0.00024,0.00165,0.1,3,3138f96cbc494b13b7154dff65cd30cd,15
bm25_100_1.2_0.1_limit_20_days_60,0.07938,0.12959,0.05211,6.52372,0.00019,0.00712,0.10021,3,cdcc95fccb3a4ae9b20eed00a5169420,15
bm25_100_1.2_0.05_limit_20_days_60,0.10109,0.1682,0.06449,5.70326,0.00013,0.08245,0.09067,3,81eb52f5aeba4f118242911ee38a1bee,15
bm25_100_1.2_0.2_limit_20_days_60,0.0636,0.10438,0.04164,7.35931,0.00028,0.00023,0.09817,3,716160b1b576453bbb3989bc2247eacc,15
bm25_100_1.2_0.3_limit_20_days_60,0.0551,0.09083,0.03564,7.91975,0.00033,3e-05,0.09244,3,15e38f36ca4f4ee2b706058608eeb831,15
bm25_100_0_1_0_8_limit_20_days_60_rank_cos_10_2,0.04774,0.09125,0.0299,7.01003,0.0002,0.00498,0.08105,3,6ff8a55304a54fb78ebec17ae63a749d,15
bm25_100_0_1_0_8_limit_20_days_60_rank_cos_20,0.05744,0.10512,0.03505,6.95236,0.00022,0.00799,0.08494,3,5d4af9a36bef4137bd87e51b11eb44b2,15
bm25_100_0_1_0_8_limit_20_days_60_rank_cos_15,0.05533,0.10397,0.03445,6.95788,0.00022,0.00754,0.08438,3,3bc63e46558f446095ff99bd2977cefc,15
